<?xml version="1.0" encoding="UTF-8" standalone="no"?>
<!-- Generator: Adobe Illustrator 17.0.1, SVG Export Plug-In . SVG Version: 6.00 Build 0)  -->

<svg
   xmlns:dc="http://purl.org/dc/elements/1.1/"
   xmlns:cc="http://creativecommons.org/ns#"
   xmlns:rdf="http://www.w3.org/1999/02/22-rdf-syntax-ns#"
   xmlns:svg="http://www.w3.org/2000/svg"
   xmlns="http://www.w3.org/2000/svg"
   xmlns:xlink="http://www.w3.org/1999/xlink"
   xmlns:sodipodi="http://sodipodi.sourceforge.net/DTD/sodipodi-0.dtd"
   xmlns:inkscape="http://www.inkscape.org/namespaces/inkscape"
   version="1.1"
   x="0px"
   y="0px"
   width="86px"
   height="86px"
   viewBox="0 0 86 86"
   enable-background="new 0 0 86 86"
   xml:space="preserve"
   id="svg19"
   sodipodi:docname="icon.svg"
   inkscape:version="0.92.1 r15371"><metadata
     id="metadata25"><rdf:RDF><cc:Work
         rdf:about=""><dc:format>image/svg+xml</dc:format><dc:type
           rdf:resource="http://purl.org/dc/dcmitype/StillImage" /><dc:title></dc:title></cc:Work></rdf:RDF></metadata><defs
     id="defs23"><linearGradient
       inkscape:collect="always"
       id="linearGradient1269"><stop
         style="stop-color:#ffaa00;stop-opacity:1"
         offset="0"
         id="stop1265" /><stop
         style="stop-color:#ff1500;stop-opacity:1"
         offset="1"
         id="stop1267" /></linearGradient><linearGradient
       inkscape:collect="always"
       xlink:href="#linearGradient4374"
       id="linearGradient4320"
       y1="540.20551"
       y2="531.11633"
       x2="399.84052"
       gradientUnits="userSpaceOnUse"
       gradientTransform="matrix(5.194505,0,0,5.2810016,-2035.173,-2765.4262)"
       x1="402.84369" /><linearGradient
       inkscape:collect="always"
       id="linearGradient4374"><stop
         style="stop-color:#14d800;stop-opacity:1"
         id="stop4376" /><stop
         offset="1"
         style="stop-color:#ffff00;stop-opacity:1"
         id="stop4378" /></linearGradient><linearGradient
       inkscape:collect="always"
       xlink:href="#linearGradient1269"
       id="linearGradient1273"
       gradientUnits="userSpaceOnUse"
       x1="40"
       y1="56"
       x2="40"
       y2="11" /></defs><sodipodi:namedview
     pagecolor="#000000"
     bordercolor="#666666"
     borderopacity="1"
     objecttolerance="10"
     gridtolerance="10"
     guidetolerance="10"
     inkscape:pageopacity="0"
     inkscape:pageshadow="2"
     inkscape:window-width="1920"
     inkscape:window-height="1051"
     id="namedview21"
     showgrid="false"
     inkscape:zoom="2.8284271"
     inkscape:cx="54.528226"
     inkscape:cy="62.833923"
     inkscape:window-x="1600"
     inkscape:window-y="0"
     inkscape:window-maximized="1"
     inkscape:current-layer="svg19"
     inkscape:object-paths="true"
     inkscape:snap-intersection-paths="true"><inkscape:grid
       type="xygrid"
       id="grid4882" /></sodipodi:namedview><g
     id="Layer_2"
     display="none" /><path
     inkscape:connector-curvature="0"
     style="fill:#8a8a8a;fill-opacity:1;stroke:none;stroke-opacity:1"
     id="path8"
     d="M 43,0.3 C 19.417,0.3 0.3,19.418 0.3,43 c 0,0.408 0,41.277 0,41.277 0,0.786 0.637,1.423 1.423,1.423 h 82.553 c 0.786,0 1.423,-0.637 1.423,-1.423 0,0 0,-40.908 0,-41.277 C 85.7,19.418 66.583,0.3 43,0.3 Z" /><path
     style="fill:url(#linearGradient1273);fill-opacity:1;stroke:none;stroke-width:1px;stroke-linecap:butt;stroke-linejoin:miter;stroke-opacity:1"
     d="m 0.3,47.09375 7.8125e-4,37.183594 c 1.651e-5,0.786 0.63587498,1.421875 1.42187495,1.421875 H 84.277344 c 0.786,0 1.421879,-0.635875 1.421875,-1.421875 L 85.699,45.557988 C 54,-35 46,102 0.3,47.09375 Z"
     id="path1230"
     inkscape:connector-curvature="0"
     sodipodi:nodetypes="csssscc" /><path
     inkscape:connector-curvature="0"
     style="fill:url(#linearGradient4320);fill-opacity:1;fill-rule:evenodd;stroke-width:2.61878753"
     id="path4185"
     d="M 45.597257,6.0329876 24.819232,48.281001 H 40.402754 V 79.967012 L 61.180768,37.718997 H 45.597257 Z" /></svg>